{
  "applicationId": null,
  "awsProfileName": "",
  "skillName": "My Alexa Skill",
  "lambdaName": "MeinSpaziergang",
  "dynamoTableName": "MeinSpaziergangDB",
  "dynamoRegion": "eu-west-1",
  "commands": {
    "ResetStateIntent": [
      "starten",
      "neu anfangen",
      "nochmal spielen"
    ],
    "RestoreStateIntent": [
      "fortsetzen",
      "spiel fortsetzen",
      "weiter spielen"
    ],
    "RepeatOptionsIntent": [
      "auswahl wiederholen"
    ],
    "RepeatSceneIntent": [
      "nochmal",
      "beschreibung wiederholen"
    ],
    "GoBackIntent": [
      "zurück",
      "gehe zurück"
    ],
    "NextIntent": [
      "überspringen"
    ],
    "AMAZON.HelpIntent": [
      "hilfe"
    ],
    "AMAZON.StopIntent": [
      "stop",
      "pause"
    ],
    "AMAZON.CancelIntent": [
      "abbrechen"
    ]
  },
  "responses": {
    "askToRestoreState": {
      "color": "default",
      "isHidden": false,
      "generateOptions": false,
      "readPreviousOptions": false,
      "card": {
        "title": "Weiter Spielen",
        "text": "Ich habe einen Alten Spielstand gefunden.",
        "prompt": "",
        "image": {
          "largeImageUrl": null,
          "smallImageUrl": null
        }
      },
      "voice": {
        "intro": "Ich habe einen alten Spielstand gefunden.",
        "prompt": "Um von dort weiter zu spielen wo du aufgehört hast, sage fortsetzen. Andernfalls sage, Neu Starten."
      }
    },
    "unrecognized": {
      "color": "default",
      "isHidden": false,
      "generateOptions": true,
      "readPreviousOptions": false,
      "card": {
        "title": "Unbekannter Befehl",
        "text": "Bitte wiederhole deinen Befehl.",
        "prompt": "",
        "image": {
          "largeImageUrl": null,
          "smallImageUrl": null
        }
      },
      "voice": {
        "intro": "Entschuldigung, bitte wiederhole deinen Befehl.",
        "prompt": ""
      }
    },
    "next": {
      "color": "default",
      "isHidden": false,
      "generateOptions": false,
      "readPreviousOptions": false,
      "card": {
        "title": "Überspringen",
        "text": "Du warst schon mal hier.",
        "prompt": "",
        "image": {
          "largeImageUrl": null,
          "smallImageUrl": null
        }
      },
      "voice": {
        "intro": "Das kommt mir bekannt vor.",
        "prompt": ""
      }
    },
    "help": {
      "color": "default",
      "isHidden": false,
      "generateOptions": false,
      "readPreviousOptions": false,
      "card": {
        "title": "Hilfe",
        "text": "Hier sind einige Tipps für dich. Du kannst jederzeit die folgenden Befehle sagen. Um deine Auswahlmöglichkeiten nochmal zuhören, sage \"Auswahl wiederholen\". Um den aktuellen Abschnitt nochmal zu hören, sage  \"Beschreibung nochmal\". Um den vorhergehenden Abschnitt zu wiederholen, sage gehe zurück. Um die aktuelle Beschreibung zu überspringen, sage überspringen. Um das Spiel zu starten, sage Starten. Um ein Spiel zu beenden oder zu unterbrechen, sage ende oder Pause. Um die Hilfe nochmal zu hören, sage \"Hilfe\".",
        "prompt": "",
        "image": {
          "largeImageUrl": null,
          "smallImageUrl": null
        }
      },
      "voice": {
        "intro": "Hier sind einige Tipps für dich. Du kannst jederzeit die folgenden Befehle sagen. Um deine Auswahlmöglichkeiten nochmal zuhören, sage Alexa, Auswahl wiederholen. Um den aktuelle Abschnitt nochmal zu hören, sage  Alexa, Beschreibung wiederholen. Um den vorhergehende Abschnitt zu wiederholen, sage gehe Alexa, zurück. Um die aktuelle Beschreibung zu überspringen, sage Alexa, überspringen. Um das Spiel zu starten, sage Starten. Um ein Spiel zu beenden oder zu unterbrechen, sage Alexa, ende oder Alexa, pause. Um die Hilfe nochmal zu hören, sage Alexa, Hilfe.",
        "prompt": "Nun, was möchtest du tun ?"
      },
      "requiresItem": false,
      "playerReceivesItem": false,
      "itemName": ""
    },
    "exit": {
      "color": "default",
      "isHidden": false,
      "generateOptions": false,
      "readPreviousOptions": false,
      "card": {
        "title": "Aufwiedersehen",
        "text": "Danke das du mit mir gespielt hast.",
        "prompt": "",
        "image": {
          "largeImageUrl": null,
          "smallImageUrl": null
        }
      },
      "voice": {
        "intro": "Danke das du mit mir gespielt hast.",
        "prompt": "Aufwiedersehen."
      }
    }
  },
  "undefined": "My Alexa Skill"
}