[
  {
    "id": 0,
    "color": "default",
    "isHidden": false,
    "readPreviousOptions": false,
    "card": {
      "title": "Willkommen",
      "text": "Willkommen bei meinem Spiel \"Der Spaziergang\". Ich werde dich bei dem Spiel begleiten, stelle dir fragen, gebe dir Hinweise und wenn du Hilfe brauchst sage \"Hilfe\". Eigentlich wolltest du ja nur einen Spaziergang durch einen Wald machen. Aber, sagte ich eigentlich ? Du bist doch immer für ein Abenteuer zu haben. Ein Abenteuer ? Das kannst du haben. Am Ende des Waldes findest du eine Mauer mit einem kleinen Eingang. Dieser Eingang sieht nicht gerade einladend aus, aber du bist doch für etwas Abwechslung oder ?",
      "prompt": "",
      "image": {
        "largeImageUrl": null,
        "smallImageUrl": null
      }
    },
    "voice": {
      "intro": "Willkommen bei meinem Spiel Der <phoneme alphabet=\"ipa\" ph=\"ʃpaˈʦiːɐ̯ˌɡaŋ\">Spaziergang</phoneme>. Ich werde dich bei dem Spiel begleiten, stelle dir fragen, gebe dir Hinweise und wenn du Hilfe brauchst sage Hilfe.\n<audio src=\"https://alexanews.de/audio/waldmitvoegel.mp3\" /> Eigendlich wolltest du ja nur einen Spaziergang durch einen Wald machen. Aber, sagte ich eigendlich ? Du bist doch immer für ein Abenteuer zu haben. Ein Abenteuer ? Das kannst du haben. Am Ende des Waldes, findest du eine Mauer mit einem kleinen Eingang. Dieser Eingang sieht nicht gerade einladend aus, aber du bist doch für etwas abwechslung, oder ?",
      "prompt": "Wenn du bereit bist sage Start."
    },
    "options": [
      {
        "utterances": [
          "start"
        ],
        "sceneId": 1
      }
    ],
    "requiresItem": false,
    "playerReceivesItem": false,
    "itemName": ""
  },
  {
    "id": 1,
    "color": "green",
    "isHidden": false,
    "readPreviousOptions": false,
    "card": {
      "title": "Eingang drei Türen",
      "text": "Du gehst hinein und dort betrittst Du einen Raum mit 3 Türen. Auf jeder Tür steht eine Zahl. Welche Tür möchtest du öffnen ?",
      "prompt": "",
      "image": {
        "largeImageUrl": null,
        "smallImageUrl": null
      }
    },
    "voice": {
      "intro": "Du gehst hinein. Dort angekommen betrittst Du einen Raum mit 3 Türen. Auf jeder Tür steht eine Zahl. Welche Tür möchtest du öffnen ?",
      "prompt": ""
    },
    "options": [
      {
        "utterances": [
          "oeffne tuer eins",
          "tuer eins"
        ],
        "sceneId": 2
      },
      {
        "utterances": [
          "oeffne tuer zwei",
          "tuer zwei"
        ],
        "sceneId": 3
      },
      {
        "utterances": [
          "oeffne tuer drei",
          "tuer drei"
        ],
        "sceneId": 4
      }
    ]
  },
  {
    "id": 2,
    "color": "red",
    "isHidden": false,
    "readPreviousOptions": false,
    "card": {
      "title": "Verloren",
      "text": "Du bist in einen tiefen Schacht gefallen. Leider hast du keine Möglichkeit wieder heraus zukommen. Die Menschenknochen die du am Boden liegen siehst machen dir Angst. Wie recht du hast. Leider hast du verloren. Wenn du nochmal Spielen möchtest, sage nochmal spielen oder sage ende.",
      "prompt": "",
      "image": {
        "largeImageUrl": null,
        "smallImageUrl": null
      }
    },
    "voice": {
      "intro": "<audio src=\"https://alexanews.de/audio/schrei.mp3\" /> Du bist in einen tiefen Schacht gefallen. Leider hast du keine Möglichkeit wieder heraus zukommen. Die Menschenknochen die du am Boden liegen siehst machen dir Angst. Wie recht du hast. Leider hast du verloren. <audio src=\"https://alexanews.de/audio/verlorenundtot.mp3\" />\nWenn du nochmal Spielen möchtest, sage nochmal spielen oder sage ende.",
      "prompt": ""
    },
    "options": []
  },
  {
    "id": 3,
    "color": "yellow",
    "isHidden": false,
    "readPreviousOptions": false,
    "card": {
      "title": "Verschlossene Tür",
      "text": "Die Tür ist verschlossen. Du hast einen Schlüssel, willst du ihn benutzen ?",
      "prompt": "",
      "image": {
        "largeImageUrl": null,
        "smallImageUrl": null
      }
    },
    "voice": {
      "intro": "Die Tür ist verschlossen. Du hast einen Schlüssel <audio src=\"https://alexanews.de/audio/schluessel.mp3\" /> willst du ihn benutzen ?",
      "prompt": "Du kannst Ja sagen oder Zurück."
    },
    "options": [
      {
        "sceneId": 10,
        "utterances": [
          "ja",
          "zurueck"
        ]
      }
    ]
  },
  {
    "id": 4,
    "color": "green",
    "isHidden": false,
    "readPreviousOptions": false,
    "card": {
      "title": "Eingang richtung Garten",
      "text": "Die Tür geht auf und du bist in einem kleinen Raum, es ist kalt und feucht, vor dir siehst du eine Holztür, sie steht offen. Was machst du ?",
      "prompt": "Du kannst \"weiter\" gehen oder \"zurück\".",
      "image": {
        "largeImageUrl": null,
        "smallImageUrl": null
      }
    },
    "voice": {
      "intro": "Die Tür geht auf <audio src=\"https://alexanews.de/audio/tuerauf.mp3\" /> und du bist in einem kleinen Raum, es ist kalt und feucht, vor dir siehst du eine Holztür, sie steht offen. Was machst du ?",
      "prompt": "Du kannst \"weiter\" gehn oder \"zurück\"."
    },
    "options": [
      {
        "sceneId": 5,
        "utterances": [
          "weiter",
          "zurueck"
        ]
      }
    ]
  },
  {
    "id": 5,
    "color": "green",
    "isHidden": false,
    "generateOptions": true,
    "readPreviousOptions": false,
    "card": {
      "title": "Langerweg",
      "text": "Vor dir ist ein langer weg es geht nur geradeaus. Du gehst weiter und weiter und immer weiter, bis du am ende des Weges vor einer Holztür stehst. Du rüttelst an ihr und sie geht auf. Was war das ? Die Tür fällt hinter dir ins schloss. Toll, jetzt ist sie zu, und du bekommst sie nicht wieder auf. Ok, jetzt geht es nur gerade aus. Vor dir ist eine Treppe und was machst du ?",
      "prompt": "",
      "image": {
        "largeImageUrl": null,
        "smallImageUrl": null
      }
    },
    "voice": {
      "intro": "Vor dir ist ein langer <phoneme alphabet=\"ipa\" ph=\"veːk\">weg</phoneme>, es geht nur geradeaus. Du gehst weiter <break time=\"1s\"/> und weiter <break time=\"1s\"/> und immer weiter, bis du am ende des Weges vor einer Holztür stehst. Du rüttelst an ihr <audio src=\"https://alexanews.de/audio/gartentuero.mp3\" /> und sie geht auf. <audio src=\"https://alexanews.de/audio/gartentuerzu.mp3\" /> Was war das ? Die Tür fällt hinter dir ins schloss. Toll, jetzt ist sie zu, und du bekommst sie nicht wieder auf. Ok, jetzt geht es nur gerade aus. Vor dir ist eine Treppe und was machst du ?",
      "prompt": ""
    },
    "options": [
      {
        "sceneId": 6,
        "utterances": [
          "treppe runter",
          "runter"
        ]
      }
    ]
  },
  {
    "id": 6,
    "color": "green",
    "isHidden": false,
    "generateOptions": true,
    "readPreviousOptions": false,
    "card": {
      "title": "Keller",
      "text": "Hier im Keller ist es sehr dunkel, nur gut das du eine Gaslampe hast. Schau doch mal in deiner Tasche, nach Streichhölzern. Die Lampe geht an. Ohh, was man mit etwas Licht, so alles sieht. Vor dir erkennst du, in dem Licht der Lampe, drei Wege. Tja was machst du jetzt ? Ab hier solltest du besonders vorsichtig sein, achte auf die Wege und Nischen. Vielleicht ist es auch ratsam dir das eine oder andere zu merken. Wohin gehst du ?",
      "prompt": "",
      "image": {
        "largeImageUrl": null,
        "smallImageUrl": null
      }
    },
    "voice": {
      "intro": "Hier im Keller ist es sehr dunkel, nur gut das du eine Gaslampe hast. Schau doch mal in deiner Tasche nach Streichhölzern. <audio src=\"https://alexanews.de/audio/streichholz.mp3\" /> Die Lampe geht an. Ohh, was man mit etwas Licht so alles sieht. Vor dir erkennst du drei Wege. Tja, was machst du jetzt ? Ab hier solltest du besonders vorsichtig sein. Achte auf die Wege und Nischen. Vielleicht ist es auch ratsam, dir das eine oder andere zu merken. Wohin gehst du ?",
      "prompt": ""
    },
    "options": [
      {
        "sceneId": 11,
        "utterances": [
          "nach rechts",
          "rechts"
        ]
      },
      {
        "sceneId": 12,
        "utterances": [
          "gerade aus",
          "mitte",
          "weiter"
        ]
      },
      {
        "sceneId": 13,
        "utterances": [
          "nach links",
          "links"
        ]
      }
    ]
  },
  {
    "id": 10,
    "color": "red",
    "isHidden": false,
    "generateOptions": true,
    "readPreviousOptions": false,
    "card": {
      "title": "Schlüssel passt nicht",
      "text": "So ein Pech der schlüssel passt nicht und anders lässt sich die Tür nicht öffnen. Also musst du wieder zurück und eine andere Tür versuchen. Oder ? Was willst du machen ?",
      "prompt": "",
      "image": {
        "largeImageUrl": null,
        "smallImageUrl": null
      }
    },
    "voice": {
      "intro": "<audio src=\"https://alexanews.de/audio/VerschlTuer.mp3\" /> Dein Schlüssel passt zwar in das Schloss, aber die Tür bleibt verschlossen. Also wieder zurück und auf ein neues. Bitte sage zurück.",
      "prompt": ""
    },
    "options": []
  },
  {
    "id": 11,
    "color": "green",
    "isHidden": false,
    "generateOptions": true,
    "readPreviousOptions": false,
    "card": {
      "title": "Gang",
      "text": "Es richt hier aber nicht besonders gut. Ich glaube du willst nicht wissen, was dort in der Ecke liegt. Es ist besser wenn du schnell weiter gehst. Vor dir ist eine Tür.",
      "prompt": "",
      "image": {
        "largeImageUrl": null,
        "smallImageUrl": null
      }
    },
    "voice": {
      "intro": "<audio src=\"https://alexanews.de/audio/fliegen.mp3\" /> Es richt hier aber nicht besonders gut. Ich glaube du willst nicht wissen, was dort in der Ecke liegt. Es ist besser wenn du schnell weiter gehst. <audio src=\"https://alexanews.de/audio/laufen.mp3\" /> Vor dir ist eine Tür.",
      "prompt": ""
    },
    "options": [
      {
        "sceneId": 15,
        "utterances": [
          "oeffne die tuer",
          "tuer auf",
          "weiter"
        ]
      }
    ]
  },
  {
    "id": 12,
    "color": "green",
    "isHidden": false,
    "generateOptions": true,
    "readPreviousOptions": false,
    "card": {
      "title": "Kellergang",
      "text": "Klasse das war deine Lampe. Tja, jetzt ist es so dunkel, das du nichts mehr sehen kannst. Aber soweit ich mich erinnere, war vor dir eine Treppe. Versuche vorsichtig nach vorne zugehen Das war dein Kopf. Ich sagte doch, vorsichtig. Ein stück nach links und du hast die Treppe gefunden.",
      "prompt": "",
      "image": {
        "largeImageUrl": null,
        "smallImageUrl": null
      }
    },
    "voice": {
      "intro": "<audio src=\"https://alexanews.de/audio/kaputteflasche.mp3\" /> Klasse, das war deine Lampe. Tja, jetzt ist es so dunkel, das du nichts mehr sehen kannst. Aber soweit ich mich erinnere, war vor dir eine Treppe. Versuche vorsichtig nach vorne zugehen. <audio src=\"https://alexanews.de/audio/kopfgestossen.mp3\" /> Das war dein Kopf. Ich sagte doch, vorsichtig. Ein stück nach links und du hast die Treppe gefunden.",
      "prompt": ""
    },
    "options": [
      {
        "sceneId": 14,
        "utterances": [
          "treppe nach oben",
          "nach oben",
          "rauf"
        ]
      }
    ]
  },
  {
    "id": 13,
    "color": "green",
    "isHidden": false,
    "generateOptions": true,
    "readPreviousOptions": false,
    "card": {
      "title": "Gang zum Geheimraum",
      "text": "Hier geht es nicht weiter. Aber an der Mauer sind Umrisse einer Geheimen Tür oder eines Geheimen Durchgang. Und an der Wand, bei der Tür steht. \"Lies die Worte, auf dem was funkelte in der Nacht\". Das ist sicher ein \"Zauber oder Geheimwort\". Wenn du es nicht kennst, sage zurück und versuche es wo anders.",
      "prompt": "Sage das Zauberwort oder sage Zurück.",
      "image": {
        "largeImageUrl": null,
        "smallImageUrl": null
      }
    },
    "voice": {
      "intro": "Hier geht es nicht weiter. Aber an der Mauer sind Umrisse einer Geheimen Tür oder eines Geheimen durchgangs. Und an der Wand, bei der Tür steht. Lies die Worte, auf dem was funkelte in der Nacht. Das ist sicher ein Zauber oder Geheimwort. Wenn du es nicht kennst, sage zurück und versuche es woanders. Sage das Geheimwort.",
      "prompt": ""
    },
    "options": [
      {
        "sceneId": 16,
        "utterances": [
          "nimm mich mit"
        ]
      }
    ]
  },
  {
    "id": 14,
    "color": "red",
    "isHidden": false,
    "generateOptions": true,
    "readPreviousOptions": false,
    "card": {
      "title": "Der Tod",
      "text": "Das war eine Falle, und der Pfeil steckt in deinem Bein. Du kannst nicht weiter gehen. Super, das wars. Hier findet dich niemand. Leider hast du verloren.",
      "prompt": "",
      "image": {
        "largeImageUrl": null,
        "smallImageUrl": null
      }
    },
    "voice": {
      "intro": "<audio src=\"https://alexanews.de/audio/pfeil.mp3\" /> Das war eine Falle, und der Pfeil steckt in deinem Bein. Du kannst nicht weiter gehen. Super, das wars. Hier findet dich niemand. Leider hast du verloren. <audio src=\"https://alexanews.de/audio/verlorenundtot.mp3\" />",
      "prompt": "Wenn du nochmal Spielen möchtest, sage \"nochmal spielen\" oder sage \"ende\"."
    },
    "options": []
  },
  {
    "id": 15,
    "color": "yellow",
    "isHidden": false,
    "generateOptions": true,
    "readPreviousOptions": true,
    "card": {
      "title": "Sackgasse mit Schlüssel für Geheimraum",
      "text": "Die Tür geht auf, und durch das Licht deiner Lampe, siehst du in der Ecke ein funkeln. Was ist das ? Du hebst den Gegenstand auf und findest einen Schlüssel. Auf dem Schlüssel steht eingraviert \"nimm mich mit\". Was das wohl bedeutet ? Egal, ab in deinen Beutel mit dem Schlüssel. In diesem Raum geht es nicht weiter, du musst zurück gehen.",
      "prompt": "",
      "image": {
        "largeImageUrl": null,
        "smallImageUrl": null
      }
    },
    "voice": {
      "intro": "Die Tür geht auf, und durch das Licht deiner Lampe, siehst du in der Ecke ein funkeln. Was ist das ? <break time=\"1s\"/> Du hebst den gegenstand auf <audio src=\"https://alexanews.de/audio/schluesselgefunden.mp3\" /> und findest einen Schlüssel. Auf dem Schlüssel steht eingraviert, \"nimm mich mit\". Was das wohl bedeutet ? Egal, ab in deinen Beutel mit dem Schlüssel. In diesem Raum geht es nicht weiter, du musst zurück gehen.",
      "prompt": ""
    },
    "options": []
  },
  {
    "id": 16,
    "color": "green",
    "isHidden": true,
    "generateOptions": true,
    "readPreviousOptions": false,
    "card": {
      "title": "Geheimraum für Schlüssel",
      "text": "Das Geheimwort war richtig. Ein Portal öffnet sich vor deinen Augen du gehst hinein und verschwindest aus diesen tristen und dunklen Keller mit einem auf der anderen Seite des Portals angekommen, findest du dich an einem Strand am Meer wieder. Was zum Kuckuck war denn das ? Verwirrt schaust du umher und jetzt ? Ja das erfährst du im 2. Teil deines Abenteuers.\nIch würde mich freuen, wenn du dir nach dem Spiel noch etwas Zeit nimmst um mein Spiel zu bewerten. Danke fürs Spielen.",
      "prompt": "",
      "image": {
        "largeImageUrl": null,
        "smallImageUrl": null
      }
    },
    "voice": {
      "intro": "Das Geheimwort war richtig. <audio src=\"https://alexanews.de/audio/portal.mp3\" /> Ein Portal öffnet sich vor deinen Augen, du gehst hinein und verschwindest aus diesen tristen und dunklen Keller. <audio src=\"https://alexanews.de/audio/beam.mp3\" /> Auf der anderen Seite des Portals angekommen, findest du dich an einem Strand am Meer wieder. <audio src=\"https://alexanews.de/audio/strand.mp3\" /> Was zum Kuckuck war denn das ? Verwirrt schaust du umher, und jetzt ? <break time=\"1s\"/> Ja, das erfährst du im 2. Teil deines Abenteuers. Ich würde mich freuen wenn du dir nach dem Spiel noch etwas Zeit nimmst und mein Spiel bewertest. Danke fürs Spielen. <break time=\"500ms\"/> Noch ein Tipp von mir. Mein Spaziergang Teil 2 ist jetzt in deiner Alexa App verfügbar.",
      "prompt": "Wenn du nochmal Spielen möchtest sage nochmal spielen, oder sage ende zum beenden."
    },
    "options": [],
    "requiresItem": false,
    "playerReceivesItem": false,
    "itemName": ""
  }
]