{
  "applicationId": null,
  "awsProfileName": "",
  "skillName": "My Alexa Skill",
  "lambdaName": "MeinAuftrag",
  "dynamoTableName": "MeinAuftragDB",
  "dynamoRegion": "eu-west-1",
  "commands": {
    "ResetStateIntent": [
      "starten",
      "neu anfangen",
      "nochmal spielen"
    ],
    "RestoreStateIntent": [
      "fortsetzen",
      "spiel fortsetzen",
      "weiter spielen"
    ],
    "RepeatOptionsIntent": [
      "auswahl wiederholen"
    ],
    "RepeatSceneIntent": [
      "nochmal",
      "beschreibung wiederholen"
    ],
    "GoBackIntent": [
      "zurück",
      "gehe zurück"
    ],
    "NextIntent": [
      "überspringen"
    ],
    "TippIntent": [
      "tipp",
      "tipp geben"
    ],
    "AMAZON.HelpIntent": [
      "hilfe"
    ],
    "AMAZON.StopIntent": [
      "stop",
      "pause"
    ],
    "AMAZON.CancelIntent": [
      "abbrechen"
    ]
  },
  "responses": {
    "askToRestoreState": {
      "color": "default",
      "isHidden": false,
      "generateOptions": false,
      "readPreviousOptions": false,
      "card": {
        "title": "Weiter Spielen",
        "text": "Ich habe einen Alten Spielstand gefunden.",
        "prompt": "",
        "image": {
          "largeImageUrl": null,
          "smallImageUrl": null
        }
      },
      "voice": {
        "intro": "Ich habe einen alten Spielstand gefunden.",
        "prompt": "Um von dort weiter zu spielen wo du aufgehört hast, sage fortsetzen. Andernfalls sage, Neu Starten."
      }
    },
    "unrecognized": {
      "color": "default",
      "isHidden": false,
      "generateOptions": true,
      "readPreviousOptions": false,
      "card": {
        "title": "Unbekannter Befehl",
        "text": "Bitte wiederhole deinen Befehl.",
        "prompt": "",
        "image": {
          "largeImageUrl": null,
          "smallImageUrl": null
        }
      },
      "voice": {
        "intro": "Entschuldigung, bitte wiederhole deinen Befehl.",
        "prompt": ""
      }
    },
    "next": {
      "color": "default",
      "isHidden": false,
      "generateOptions": false,
      "readPreviousOptions": false,
      "card": {
        "title": "Überspringen",
        "text": "Du warst schon mal hier.",
        "prompt": "",
        "image": {
          "largeImageUrl": null,
          "smallImageUrl": null
        }
      },
      "voice": {
        "intro": "Das kommt mir bekannt vor.",
        "prompt": ""
      }
    },
    "tipp": {
      "color": "default",
      "isHidden": false,
      "generateOptions": false,
      "readPreviousOptions": false,
      "card": {
        "title": "Spoilern",
        "text": "OK, du möchtest von mir einen  Tipp. Die Tipps werden dir  vorgelesen.",
        "prompt": "",
        "image": {
          "largeImageUrl": null,
          "smallImageUrl": null
        }
      },
      "voice": {
        "intro": "OK, du möchtest von mir einen <phoneme alphabet=\"ipa\" ph=\"tɪp\">Tipp</phoneme>. Wenn du sicher bist dann warte noch drei Sekunden oder überspringe mit dem Satz. <break time=\"50ms\"/> Alexa, überspringen. <break time=\"1s\"/> Du hast noch 2 Sekunden <break time=\"1s\"/> noch eine Sekunde. <break time=\"1s\"/> Hier kommt Tipp eins von zwei.<break time=\"50ms\"/> In Blackpool, stehst du vor dem Haus von William Thomson, dort gibt es einen Kellerraum. Alexa weist dich auch darauf hin und zwar wenn du beim Gartenhaus bist. Sie sagt zu dir <break time=\"50ms\"/> Ich habe vorhin neben dem Eingang noch eine Kellertreppe gesehen. Lass uns zurück gehen und dann die Treppe runter.<break time=\"100ms\"/> Wenn du also wieder vor der Eingangstür stehst und Alexa dich fragt <break time=\"100ms\"/> Du stehst vor der Tür. Steve, was machen wir jetzt ?<break time=\"50ms\"/> sagst du, Treppe runter. <break time=\"100ms\"/> Achtung jetzt kommt Tipp zwei von zwei <break time=\"100ms\"/> oder überspringe mit dem Satz. <break time=\"50ms\"/> Alexa, überspringen. <break time=\"50ms\"/> Noch eine Sekunde <break time=\"1s\"/> Das benötigte Passwort lautet <break time=\"1s\"/>  <p>PASSWORT .</p><break time=\"100ms\"/> Und jetzt viel Spaß beim weiterspielen.",
        "prompt": "Nun, was möchtest du tun ?"
      }
    },
    "help": {
      "color": "default",
      "isHidden": false,
      "generateOptions": false,
      "readPreviousOptions": false,
      "card": {
        "title": "Hilfe",
        "text": "Hier kommen einige Sätze die du sagen kannst. Um das Spiel zu steuern, kannst Du jederzeit die folgenden Befehle sagen. Um deine Auswahlmöglichkeiten nochmal zuhören sage, Auswahl wiederholen. Möchtest du den aktuellen Abschnitt nochmal hören Sage, Beschreibung wiederholen. Um den vorherigen Abschnitt zu wiederholen sage, gehe zurück. Möchtest Du die aktuelle Beschreibung überspringen sage, überspringen. Möchtest du das Spiel neu starten, dann sage starten. Dabei wird der Alte Spielstand überschrieben. Um ein Spiel zu beenden oder zu unterbrechen, sage Ende oder Pause. Wenn du diese Hilfe nochmal hören möchtest, sage Hilfe. Und jetzt, wünschen Nordic Skills und ich dir viel Spaß.",
        "prompt": "",
        "image": {
          "largeImageUrl": null,
          "smallImageUrl": null
        }
      },
      "voice": {
        "intro": "Hier kommen einige Sätze die du sagen kannst, um das Spiel zu steuern. <break time=\\\"200ms\\\"/> Du kannst jederzeit die folgenden Befehle sagen. <break time=\\\"100ms\\\"/> Um deine Auswahlmöglichkeiten nochmal zuhören <break time=\\\"100ms\\\"/> sage, Auswahl wiederholen. <break time=\\\"200ms\\\"/> Möchtest du den aktuellen Abschnitt nochmal hören <break time=\\\"100ms\\\"/> Sage, Beschreibung wiederholen. <break time=\\\"100ms\\\"/> Um den vorherigen Abschnitt zu wiederholen <break time=\\\"100ms\\\"/> sage, gehe zurück. <break time=\\\"200ms\\\"/> Möchtest Du die aktuelle Beschreibung überspringen <break time=\\\"100ms\\\"/> sage, überspringen. <break time=\\\"200ms\\\"/> Möchtest du das Spiel neu anfangen, dann sage, starten. Dabei wird der Alte Spielstand überschrieben. <break time=\\\"200ms\\\"/> Um das Spiel zu beenden oder zu unterbrechen, sage Ende oder Pause. <break time=\\\"350ms\\\"/> Wenn du diese Hilfe nochmal hören möchtest, sage Hilfe. <break time=\\\"150ms\\\"/> Und jetzt, wünschen Nordic Skills und ich dir viel Spaß.",
        "prompt": "Nun, was möchtest du tun ?"
      },
      "requiresItem": false,
      "playerReceivesItem": false,
      "itemName": "",
      "session": {
        "variableMode": "replace",
        "variableGet": "",
        "variableGetValue": "",
        "variableSet": "",
        "variableSetValue": "",
        "action": "default",
        "actionValue": ""
      }
    },
    "exit": {
      "color": "default",
      "isHidden": false,
      "generateOptions": false,
      "readPreviousOptions": false,
      "card": {
        "title": "Auf wiederhören und vielen Dank für´s Spielen.",
        "text": "Danke, dass du mit mir gespielt hast.\n\nWenn dir dieser Skill gefallen hat, freut sich das Team von \"Nordic Skills\" über eine positive Bewertung von dir!\nDies hilft ihnen zukünftig weitere Skills zu entwickeln.\n\nUnd so bewertest du einen Skill:\n\n1. Öffne die Alexa App auf deinem Smartphone, Laptop oder PC\n\n2. Gehe in den Bereich „Skills“\n\n3. Tippe auf „Ihre Skills“ in der rechten oberen Ecke\n\n4. Suche nach „Mein Auftrag“\n\n5. Scrolle bis nach unten und tippe auf „Schreiben Sie eine Rezension“\n\n6. Unterstütze das Team von \"Nordic Skills\" mit deiner 5-Sterne-Bewertung\n\nDanke!",
        "prompt": "",
        "image": {
          "largeImageUrl": "https://nordicskills.de/bilder/DerZauberwaldKendell/Danke.jpg",
          "smallImageUrl": "https://nordicskills.de/bilder/DerZauberwaldKendell/Danke.jpg"
        }
      },
      "voice": {
        "intro": "Danke das du mit mir gespielt hast.",
        "prompt": "Auf wiedersehen."
      },
      "requiresItem": false,
      "playerReceivesItem": false,
      "itemName": "",
      "session": {
        "variableMode": "replace",
        "variableGet": "",
        "variableGetValue": "",
        "variableSet": "",
        "variableSetValue": "",
        "action": "default",
        "actionValue": ""
      }
    }
  },
  "undefined": "My Alexa Skill"
}