{
  "intents": [
    {
      "intent": "UnrecognizedIntent"
    },
    {
      "intent": "ResetStateIntent"
    },
    {
      "intent": "RestoreStateIntent"
    },
    {
      "intent": "RepeatOptionsIntent"
    },
    {
      "intent": "RepeatSceneIntent"
    },
    {
      "intent": "GoBackIntent"
    },
    {
      "intent": "NextIntent"
    },
    {
      "intent": "TippIntent"
    },
    {
      "intent": "InventarIntent"
    },
    {
      "intent": "AMAZON.HelpIntent"
    },
    {
      "intent": "AMAZON.StopIntent"
    },
    {
      "intent": "AMAZON.CancelIntent"
    },
    {
      "intent": "StartIntent"
    },
    {
      "intent": "FlurBetretenIntent"
    },
    {
      "intent": "KomodeIntent"
    },
    {
      "intent": "AusgangIntent"
    },
    {
      "intent": "AbstellraumIntent"
    },
    {
      "intent": "TreppeRunterIntent"
    },
    {
      "intent": "HaustuerOeffnenIntent"
    },
    {
      "intent": "StrasseNachRechtsIntent"
    },
    {
      "intent": "UeberDieStrasseIntent"
    },
    {
      "intent": "StrasseNachLinksIntent"
    },
    {
      "intent": "NachSehenIntent"
    },
    {
      "intent": "JaWeiterIntent"
    },
    {
      "intent": "TaxiBenutzenIntent"
    },
    {
      "intent": "AussteigenIntent"
    },
    {
      "intent": "ZumBahnhofIntent"
    },
    {
      "intent": "ZeitungMitnehmenIntent"
    },
    {
      "intent": "BahnhofBetretenIntent"
    },
    {
      "intent": "ZumZugIntent"
    },
    {
      "intent": "ZumKioskIntent"
    },
    {
      "intent": "FahrkartenautomatIntent"
    },
    {
      "intent": "EinsteigenIntent"
    },
    {
      "intent": "AbteilBetretenIntent"
    },
    {
      "intent": "ZugVerlassenIntent"
    },
    {
      "intent": "BahnhofVerlassenIntent"
    },
    {
      "intent": "ZumCampusIntent"
    },
    {
      "intent": "ZumGartenIntent"
    },
    {
      "intent": "GeradeausIntent"
    },
    {
      "intent": "HauptgebaeudeIntent"
    },
    {
      "intent": "ZumPfoertnerIntent"
    },
    {
      "intent": "LaborBetretenIntent"
    },
    {
      "intent": "BueroBetretenIntent"
    },
    {
      "intent": "LaborVerlassenIntent"
    },
    {
      "intent": "SchranktuerOeffnenIntent"
    },
    {
      "intent": "SchluesselkastenIntent"
    },
    {
      "intent": "ParkplatzIntent"
    },
    {
      "intent": "VierEinsAchtAchtFuenfIntent"
    },
    {
      "intent": "BMWIntent"
    },
    {
      "intent": "EnteIntent"
    },
    {
      "intent": "AudiIntent"
    },
    {
      "intent": "GolfIntent"
    },
    {
      "intent": "AbfahrenIntent"
    },
    {
      "intent": "AutoVerlassenIntent"
    },
    {
      "intent": "ZumEingangIntent"
    },
    {
      "intent": "HausBetretenIntent"
    },
    {
      "intent": "ToiletteIntent"
    },
    {
      "intent": "InDenFlurIntent"
    },
    {
      "intent": "ZumTischIntent"
    },
    {
      "intent": "NeinWillIchNichtIntent"
    },
    {
      "intent": "AbInsWohnzimmerIntent"
    },
    {
      "intent": "KlingelnIntent"
    },
    {
      "intent": "RegenrinneUntersuchenIntent"
    },
    {
      "intent": "BlumentopfUntersuchenIntent"
    },
    {
      "intent": "FussmatteAnhebenIntent"
    },
    {
      "intent": "HaustuerAufschliessenIntent"
    },
    {
      "intent": "NachHintenIntent"
    },
    {
      "intent": "AbwartenIntent"
    },
    {
      "intent": "NachDraussenIntent"
    },
    {
      "intent": "LosfahrenIntent"
    },
    {
      "intent": "ZielAIntent"
    },
    {
      "intent": "ZielBIntent"
    },
    {
      "intent": "HausAnsehenIntent"
    },
    {
      "intent": "AnhaltenIntent"
    },
    {
      "intent": "HinterDasHausIntent"
    },
    {
      "intent": "AufsDachIntent"
    },
    {
      "intent": "DurchsFensterIntent"
    },
    {
      "intent": "ZumKofferraumIntent"
    },
    {
      "intent": "TuerAufbrechenIntent"
    },
    {
      "intent": "AnDerTuerHorchenIntent"
    },
    {
      "intent": "TuerLeiseOeffnenIntent"
    },
    {
      "intent": "RaumVerlassenIntent"
    },
    {
      "intent": "JaWirHelfenIntent"
    },
    {
      "intent": "NeinWirGehenIntent"
    },
    {
      "intent": "NeinKeineLustIntent"
    },
    {
      "intent": "JaNatuerlichIntent"
    },
    {
      "intent": "IchVerpruegelIhnIntent"
    },
    {
      "intent": "IchErpresseIhnIntent"
    },
    {
      "intent": "EineFalleStellenIntent"
    },
    {
      "intent": "VerpruegelnIntent"
    },
    {
      "intent": "ErpressenIntent"
    },
    {
      "intent": "ZumAutoGehenIntent"
    },
    {
      "intent": "AnhaltenUndAussteigenIntent"
    },
    {
      "intent": "ZurUniIntent"
    },
    {
      "intent": "WirNehmenLinksIntent"
    },
    {
      "intent": "DieHintertuerBenutzenIntent"
    },
    {
      "intent": "WirGehenRechtsIntent"
    },
    {
      "intent": "WirGehenWeiterIntent"
    },
    {
      "intent": "FuenfAchtAchtEinsVierIntent"
    },
    {
      "intent": "SecurityAblenkenIntent"
    },
    {
      "intent": "BuerotuerOeffnenIntent"
    },
    {
      "intent": "EinZeichenGebenIntent"
    },
    {
      "intent": "ZumVordereingangIntent"
    },
    {
      "intent": "ZumBueroVomProfessorIntent"
    },
    {
      "intent": "ZuAdamsGehenIntent"
    },
    {
      "intent": "DasNotizbuchZeigenIntent"
    },
    {
      "intent": "FlascheOeffnenIntent"
    }
  ]
}