[
  {
    "id": 0,
    "color": "default",
    "isHidden": false,
    "readPreviousOptions": false,
    "card": {
      "title": "Willkommen",
      "text": "Willkommen zurück bei meinem Spiel \"Mein Spaziergang Teil Zwei\". Ich werde dich auch bei diesem Spiel begleiten, stelle dir fragen, gebe dir wieder Hinweise und wenn du Hilfe brauchst. Ach ja das weist du ja noch, dann sagst du \"Hilfe\". Gut, dann lass uns weiter spielen. Nachdem du das Portal benutzt hast und am Strand angekommen bist, lässt deine Verwirrung langsam nach und du bemerkst ein Wasserflugzeug. Du rappelst dich auf und gehst zum Flugzeug. Nicht nur das du nicht Fliegen kannst einen Schlüssel für die Maschine hast du auch nicht. Klasse. und jetzt ? Ups, was ist das ? Das Portal hat sich erneut geöffnet und ein Rucksack ist durch das Portal gefallen. Du gehst zum Rucksack. Du sammelst ihn auf und nimmst ihn mit.",
      "prompt": "",
      "image": {
        "largeImageUrl": null,
        "smallImageUrl": null
      }
    },
    "voice": {
      "intro": "<say-as interpret-as=\"interjection\">Willkommen zurück</say-as> bei meinem Spiel <break time=\"10ms\"/>\"Mein Spaziergang Teil Zwei\". Ich werde dich auch bei diesem Spiel begleiten, stelle dir fragen, gebe dir wieder Hinweise und wenn du Hilfe brauchst <break time=\"50ms\"/> ach ja das weist du ja noch <break time=\"40ms\"/> dann sagst du \"Hilfe\". <break time=\"50ms\"/> Gut, dann lass uns weiter spielen. <audio src=\"https://alexanews.de/audio/MeinSpaziergang2/beam.mp3\" /> Nachdem du das Portal benutzt hast und am Strand angekommen bist, lässt deine Verwirrung langsam nach <break time=\"30ms\"/> und du bemerkst ein Wasserflugzeug. <break time=\"40ms\"/> Du rappelst dich auf und <phoneme alphabet=\"ipa\" ph=\"ɡeːst\">gehst</phoneme> zum Flugzeug. <break time=\"50ms\"/> Nicht nur das du nicht Fliegen kannst <break time=\"45ms\"/> einen Schlüssel für die Maschine hast du auch nicht. <break time=\"50ms\"/> Klasse. und jetzt ? <break time=\"50ms\"/> <audio src=\"https://alexanews.de/audio/MeinSpaziergang2/beam.mp3\" /> Ups, was ist das ? <break time=\"40ms\"/> Das Portal hat sich erneut geöffnet und ein Rucksack ist durch das Portal gefallen. Du gehst zum Rucksack <audio src=\"https://alexanews.de/audio/MeinSpaziergang2/strand.mp3\" />Du sammelst ihn auf und nimmst ihn mit.",
      "prompt": "OK. Bist du so weit ? Dann sage Start oder Anfangen."
    },
    "options": [
      {
        "sceneId": 1,
        "utterances": [
          ""
        ]
      }
    ],
    "requiresItem": false,
    "playerReceivesItem": false,
    "itemName": ""
  },
  {
    "id": 1,
    "color": "default",
    "isHidden": false,
    "requiresItem": false,
    "playerReceivesItem": false,
    "itemName": "",
    "generateOptions": true,
    "readPreviousOptions": false,
    "card": {
      "title": "Skill auswählen!",
      "text": "Der Text wird dir vorgelesen.",
      "prompt": "",
      "image": {
        "largeImageUrl": null,
        "smallImageUrl": null
      }
    },
    "voice": {
      "intro": "Sprachtext und Frage für die Handlung...",
      "prompt": ""
    },
    "options": []
  }
]